D:\NetBeansProjects\database\StoreProject\src\main\java\com\mycompany\storeproject\poc\TestInsertProduct.java
D:\NetBeansProjects\database\StoreProject\src\main\java\com\mycompany\storeproject\poc\TestSelecProduct.java
D:\NetBeansProjects\database\StoreProject\src\main\java\com\mycompany\storeproject\poc\TestConnection.java
